4780390902998763685576473730798848673544352864264571536009134836875233685232454080173187007
1240690495629880689766025182720512022933010134228707096872064134093275964370518702681759025173127627069797519900182949209
340930743395821385312930009065125340481672359916497654095522452803438531182141395774015810665431645893729233180503692983
3665018686547012668496786387890741846244589017651467957505417953210521480450027338710763990554086907641689678912340798493
827537082391925780699781377598545677355099033215745298165615042687278654554341691166212086771570721545066603589295518327
