{
  "States": [
    "Q0", "Q1", "Q2"
  ],
  "InAbc": [
    "a", "b"  
  ],
  "StackAbc": [
    "Z", "a", "b"
  ],
  "TransAbc": [
    "0", "1"
  ],
  "StartState": "Q0",
  "InitStackSymbol": "Z",
  "FinalStates": [
    "Q2"  
  ],
  "Rules": [
    {
      "InState": "Q0",
      "InSymbol": "a",
      "InSymbolStack": "Z",
      "OutState": ["Q0"],
      "OutSymbols": ["aZ"],
      "OutTrans": ["0"]
    },
    {
      "InState": "Q0",
      "InSymbol": "b",
      "InSymbolStack": "Z",
      "OutState": ["Q0"],
      "OutSymbols": ["bZ"],
      "OutTrans": ["1"]
    },
    {
      "InState": "Q0",
      "InSymbol": "a",
      "InSymbolStack": "a",
      "OutState": ["Q0","Q1"],
      "OutSymbols": ["aa",""],
      "OutTrans": ["0","1"]
    },
    {
      "InState": "Q0",
      "InSymbol": "a",
      "InSymbolStack": "b",
      "OutState": ["Q0"],
      "OutSymbols": ["ab"],
      "OutTrans": ["0"]
    },
    {
      "InState": "Q0",
      "InSymbol": "b",
      "InSymbolStack": "a",
      "OutState": ["Q0"],
      "OutSymbols": ["ba"],
      "OutTrans": ["0"]
    },
    {
      "InState": "Q0",
      "InSymbol": "b",
      "InSymbolStack": "b",
      "OutState": ["Q0","Q1"],
      "OutSymbols": ["bb",""],
      "OutTrans": ["0","1"]
    },
    {
      "InState": "Q1",
      "InSymbol": "a",
      "InSymbolStack": "a",
      "OutState": ["Q1"],
      "OutSymbols": [""],
      "OutTrans": ["0"]
    },
    {
      "InState": "Q1",
      "InSymbol": "b",
      "InSymbolStack": "b",
      "OutState": ["Q1"],
      "OutSymbols": [""],
      "OutTrans": ["0"]
    },
    {
      "InState": "Q1",
      "InSymbol": "",
      "InSymbolStack": "Z",
      "OutState": ["Q2"],
      "OutSymbols": [""],
      "OutTrans": [""]
    }
  ]
}